į10.102.32.82
įversionCode="V1"
įreadCommunity="public"
pingįtrue
snmpįtrue
.1.3.6.1.2.1.1.1.0į(OctetString)ASMi-54 HW Version: 0.00, SW Version: 1.00
.1.3.6.1.2.1.1.2.0į(ObjectIdentifier).1.3.6.1.4.1.164.6.1.3.140
.1.3.6.1.2.1.1.3.0į(TimeTicks)220367185
.1.3.6.1.2.1.1.4.0į(OctetString)Name of the contact person
.1.3.6.1.2.1.1.5.0į(OctetString)ASMi-54
.1.3.6.1.2.1.1.6.0į(OctetString)Location of the device
.1.3.6.1.2.1.2.1.0į(Integer32)13
.1.3.6.1.4.1.164.6.2.1.0į(OctetString)Put your string here
.1.3.6.1.4.1.164.6.2.24.0į(IPAddress)10.102.32.201
.1.3.6.1.4.1.164.6.2.34.1.0į(Integer32)3
.1.3.6.1.4.1.164.6.2.34.2.0į(Integer32)3
.1.3.6.1.4.1.164.6.2.40.1.2.1į(IPAddress)10.102.32.82
.1.3.6.1.4.1.164.6.2.40.1.3.1į(IPAddress)255.255.255.0
.1.3.6.1.2.1.2.2į(.1.3.6.1.2.1.2.2.1.1.184565760@Integer32)184565760§(.1.3.6.1.2.1.2.2.1.2.184565760@OctetString)ETH Port 1§(.1.3.6.1.2.1.2.2.1.3.184565760@Integer32)6§(.1.3.6.1.2.1.2.2.1.4.184565760@Integer32)0§(.1.3.6.1.2.1.2.2.1.5.184565760@Gauge32)100000000§(.1.3.6.1.2.1.2.2.1.6.184565760@OctetString)00-20-D2-2A-72-51§(.1.3.6.1.2.1.2.2.1.7.184565760@Integer32)1§(.1.3.6.1.2.1.2.2.1.8.184565760@Integer32)1§(.1.3.6.1.2.1.2.2.1.9.184565760@NoSuchInstance)NoSuchInstance§(.1.3.6.1.2.1.2.2.1.10.184565760@Counter32)3320884305§(.1.3.6.1.2.1.2.2.1.11.184565760@Counter32)3902939§(.1.3.6.1.2.1.2.2.1.12.184565760@NoSuchInstance)NoSuchInstance§(.1.3.6.1.2.1.2.2.1.13.184565760@Counter32)0§(.1.3.6.1.2.1.2.2.1.14.184565760@Counter32)0§(.1.3.6.1.2.1.2.2.1.15.184565760@NoSuchInstance)NoSuchInstance§(.1.3.6.1.2.1.2.2.1.16.184565760@Counter32)522136158§(.1.3.6.1.2.1.2.2.1.17.184565760@Counter32)120364744§(.1.3.6.1.2.1.2.2.1.18.184565760@NoSuchInstance)NoSuchInstance§(.1.3.6.1.2.1.2.2.1.19.184565760@Counter32)0§(.1.3.6.1.2.1.2.2.1.20.184565760@Counter32)0§(.1.3.6.1.2.1.2.2.1.21.184565760@NoSuchInstance)NoSuchInstance§(.1.3.6.1.2.1.2.2.1.22.184565760@NoSuchInstance)NoSuchInstance
.1.3.6.1.2.1.2.2į(.1.3.6.1.2.1.2.2.1.1.184582144@Integer32)184582144§(.1.3.6.1.2.1.2.2.1.2.184582144@OctetString)ETH Port 2§(.1.3.6.1.2.1.2.2.1.3.184582144@Integer32)6§(.1.3.6.1.2.1.2.2.1.4.184582144@Integer32)0§(.1.3.6.1.2.1.2.2.1.5.184582144@Gauge32)0§(.1.3.6.1.2.1.2.2.1.6.184582144@OctetString)00-00-00-00-00-00§(.1.3.6.1.2.1.2.2.1.7.184582144@Integer32)1§(.1.3.6.1.2.1.2.2.1.8.184582144@Integer32)2§(.1.3.6.1.2.1.2.2.1.9.184582144@NoSuchInstance)NoSuchInstance§(.1.3.6.1.2.1.2.2.1.10.184582144@Counter32)0§(.1.3.6.1.2.1.2.2.1.11.184582144@Counter32)3902939§(.1.3.6.1.2.1.2.2.1.12.184582144@NoSuchInstance)NoSuchInstance§(.1.3.6.1.2.1.2.2.1.13.184582144@Counter32)0§(.1.3.6.1.2.1.2.2.1.14.184582144@Counter32)0§(.1.3.6.1.2.1.2.2.1.15.184582144@NoSuchInstance)NoSuchInstance§(.1.3.6.1.2.1.2.2.1.16.184582144@Counter32)0§(.1.3.6.1.2.1.2.2.1.17.184582144@Counter32)120364744§(.1.3.6.1.2.1.2.2.1.18.184582144@NoSuchInstance)NoSuchInstance§(.1.3.6.1.2.1.2.2.1.19.184582144@Counter32)0§(.1.3.6.1.2.1.2.2.1.20.184582144@Counter32)0§(.1.3.6.1.2.1.2.2.1.21.184582144@NoSuchInstance)NoSuchInstance§(.1.3.6.1.2.1.2.2.1.22.184582144@NoSuchInstance)NoSuchInstance
.1.3.6.1.2.1.2.2į(.1.3.6.1.2.1.2.2.1.1.184598528@Integer32)184598528§(.1.3.6.1.2.1.2.2.1.2.184598528@OctetString)ETH Port 3§(.1.3.6.1.2.1.2.2.1.3.184598528@Integer32)6§(.1.3.6.1.2.1.2.2.1.4.184598528@Integer32)0§(.1.3.6.1.2.1.2.2.1.5.184598528@Gauge32)0§(.1.3.6.1.2.1.2.2.1.6.184598528@OctetString)00-00-00-00-00-00§(.1.3.6.1.2.1.2.2.1.7.184598528@Integer32)1§(.1.3.6.1.2.1.2.2.1.8.184598528@Integer32)2§(.1.3.6.1.2.1.2.2.1.9.184598528@NoSuchInstance)NoSuchInstance§(.1.3.6.1.2.1.2.2.1.10.184598528@Counter32)0§(.1.3.6.1.2.1.2.2.1.11.184598528@Counter32)3902939§(.1.3.6.1.2.1.2.2.1.12.184598528@NoSuchInstance)NoSuchInstance§(.1.3.6.1.2.1.2.2.1.13.184598528@Counter32)0§(.1.3.6.1.2.1.2.2.1.14.184598528@Counter32)0§(.1.3.6.1.2.1.2.2.1.15.184598528@NoSuchInstance)NoSuchInstance§(.1.3.6.1.2.1.2.2.1.16.184598528@Counter32)0§(.1.3.6.1.2.1.2.2.1.17.184598528@Counter32)120364744§(.1.3.6.1.2.1.2.2.1.18.184598528@NoSuchInstance)NoSuchInstance§(.1.3.6.1.2.1.2.2.1.19.184598528@Counter32)0§(.1.3.6.1.2.1.2.2.1.20.184598528@Counter32)0§(.1.3.6.1.2.1.2.2.1.21.184598528@NoSuchInstance)NoSuchInstance§(.1.3.6.1.2.1.2.2.1.22.184598528@NoSuchInstance)NoSuchInstance
.1.3.6.1.2.1.2.2į(.1.3.6.1.2.1.2.2.1.1.184614912@Integer32)184614912§(.1.3.6.1.2.1.2.2.1.2.184614912@OctetString)ETH Port 4§(.1.3.6.1.2.1.2.2.1.3.184614912@Integer32)6§(.1.3.6.1.2.1.2.2.1.4.184614912@Integer32)0§(.1.3.6.1.2.1.2.2.1.5.184614912@Gauge32)0§(.1.3.6.1.2.1.2.2.1.6.184614912@OctetString)00-00-00-00-00-00§(.1.3.6.1.2.1.2.2.1.7.184614912@Integer32)1§(.1.3.6.1.2.1.2.2.1.8.184614912@Integer32)2§(.1.3.6.1.2.1.2.2.1.9.184614912@NoSuchInstance)NoSuchInstance§(.1.3.6.1.2.1.2.2.1.10.184614912@Counter32)0§(.1.3.6.1.2.1.2.2.1.11.184614912@Counter32)3902939§(.1.3.6.1.2.1.2.2.1.12.184614912@NoSuchInstance)NoSuchInstance§(.1.3.6.1.2.1.2.2.1.13.184614912@Counter32)0§(.1.3.6.1.2.1.2.2.1.14.184614912@Counter32)0§(.1.3.6.1.2.1.2.2.1.15.184614912@NoSuchInstance)NoSuchInstance§(.1.3.6.1.2.1.2.2.1.16.184614912@Counter32)0§(.1.3.6.1.2.1.2.2.1.17.184614912@Counter32)120364744§(.1.3.6.1.2.1.2.2.1.18.184614912@NoSuchInstance)NoSuchInstance§(.1.3.6.1.2.1.2.2.1.19.184614912@Counter32)0§(.1.3.6.1.2.1.2.2.1.20.184614912@Counter32)0§(.1.3.6.1.2.1.2.2.1.21.184614912@NoSuchInstance)NoSuchInstance§(.1.3.6.1.2.1.2.2.1.22.184614912@NoSuchInstance)NoSuchInstance
.1.3.6.1.2.1.2.2į(.1.3.6.1.2.1.2.2.1.1.302006272@Integer32)302006272§(.1.3.6.1.2.1.2.2.1.2.302006272@OctetString)PME Port 1§(.1.3.6.1.2.1.2.2.1.3.302006272@Integer32)169§(.1.3.6.1.2.1.2.2.1.4.302006272@Integer32)0§(.1.3.6.1.2.1.2.2.1.5.302006272@Gauge32)5696000§(.1.3.6.1.2.1.2.2.1.6.302006272@OctetString)00-00-00-00-00-00§(.1.3.6.1.2.1.2.2.1.7.302006272@Integer32)1§(.1.3.6.1.2.1.2.2.1.8.302006272@Integer32)1§(.1.3.6.1.2.1.2.2.1.9.302006272@NoSuchInstance)NoSuchInstance§(.1.3.6.1.2.1.2.2.1.10.302006272@Counter32)0§(.1.3.6.1.2.1.2.2.1.11.302006272@Counter32)3902939§(.1.3.6.1.2.1.2.2.1.12.302006272@NoSuchInstance)NoSuchInstance§(.1.3.6.1.2.1.2.2.1.13.302006272@Counter32)0§(.1.3.6.1.2.1.2.2.1.14.302006272@Counter32)0§(.1.3.6.1.2.1.2.2.1.15.302006272@NoSuchInstance)NoSuchInstance§(.1.3.6.1.2.1.2.2.1.16.302006272@Counter32)0§(.1.3.6.1.2.1.2.2.1.17.302006272@Counter32)120364744§(.1.3.6.1.2.1.2.2.1.18.302006272@NoSuchInstance)NoSuchInstance§(.1.3.6.1.2.1.2.2.1.19.302006272@Counter32)0§(.1.3.6.1.2.1.2.2.1.20.302006272@Counter32)0§(.1.3.6.1.2.1.2.2.1.21.302006272@NoSuchInstance)NoSuchInstance§(.1.3.6.1.2.1.2.2.1.22.302006272@NoSuchInstance)NoSuchInstance
.1.3.6.1.2.1.2.2į(.1.3.6.1.2.1.2.2.1.1.302022656@Integer32)302022656§(.1.3.6.1.2.1.2.2.1.2.302022656@OctetString)PME Port 2§(.1.3.6.1.2.1.2.2.1.3.302022656@Integer32)169§(.1.3.6.1.2.1.2.2.1.4.302022656@Integer32)0§(.1.3.6.1.2.1.2.2.1.5.302022656@Gauge32)0§(.1.3.6.1.2.1.2.2.1.6.302022656@OctetString)00-00-00-00-00-00§(.1.3.6.1.2.1.2.2.1.7.302022656@Integer32)1§(.1.3.6.1.2.1.2.2.1.8.302022656@Integer32)2§(.1.3.6.1.2.1.2.2.1.9.302022656@NoSuchInstance)NoSuchInstance§(.1.3.6.1.2.1.2.2.1.10.302022656@Counter32)0§(.1.3.6.1.2.1.2.2.1.11.302022656@Counter32)3902939§(.1.3.6.1.2.1.2.2.1.12.302022656@NoSuchInstance)NoSuchInstance§(.1.3.6.1.2.1.2.2.1.13.302022656@Counter32)0§(.1.3.6.1.2.1.2.2.1.14.302022656@Counter32)0§(.1.3.6.1.2.1.2.2.1.15.302022656@NoSuchInstance)NoSuchInstance§(.1.3.6.1.2.1.2.2.1.16.302022656@Counter32)0§(.1.3.6.1.2.1.2.2.1.17.302022656@Counter32)120364744§(.1.3.6.1.2.1.2.2.1.18.302022656@NoSuchInstance)NoSuchInstance§(.1.3.6.1.2.1.2.2.1.19.302022656@Counter32)0§(.1.3.6.1.2.1.2.2.1.20.302022656@Counter32)0§(.1.3.6.1.2.1.2.2.1.21.302022656@NoSuchInstance)NoSuchInstance§(.1.3.6.1.2.1.2.2.1.22.302022656@NoSuchInstance)NoSuchInstance
.1.3.6.1.2.1.2.2į(.1.3.6.1.2.1.2.2.1.1.369115136@Integer32)369115136§(.1.3.6.1.2.1.2.2.1.2.369115136@OctetString)PCS Port 1§(.1.3.6.1.2.1.2.2.1.3.369115136@Integer32)6§(.1.3.6.1.2.1.2.2.1.4.369115136@Integer32)0§(.1.3.6.1.2.1.2.2.1.5.369115136@Gauge32)5696000§(.1.3.6.1.2.1.2.2.1.6.369115136@OctetString)00-00-00-00-00-00§(.1.3.6.1.2.1.2.2.1.7.369115136@Integer32)1§(.1.3.6.1.2.1.2.2.1.8.369115136@Integer32)1§(.1.3.6.1.2.1.2.2.1.9.369115136@NoSuchInstance)NoSuchInstance§(.1.3.6.1.2.1.2.2.1.10.369115136@Counter32)0§(.1.3.6.1.2.1.2.2.1.11.369115136@Counter32)3902939§(.1.3.6.1.2.1.2.2.1.12.369115136@NoSuchInstance)NoSuchInstance§(.1.3.6.1.2.1.2.2.1.13.369115136@Counter32)0§(.1.3.6.1.2.1.2.2.1.14.369115136@Counter32)0§(.1.3.6.1.2.1.2.2.1.15.369115136@NoSuchInstance)NoSuchInstance§(.1.3.6.1.2.1.2.2.1.16.369115136@Counter32)0§(.1.3.6.1.2.1.2.2.1.17.369115136@Counter32)120364744§(.1.3.6.1.2.1.2.2.1.18.369115136@NoSuchInstance)NoSuchInstance§(.1.3.6.1.2.1.2.2.1.19.369115136@Counter32)0§(.1.3.6.1.2.1.2.2.1.20.369115136@Counter32)0§(.1.3.6.1.2.1.2.2.1.21.369115136@NoSuchInstance)NoSuchInstance§(.1.3.6.1.2.1.2.2.1.22.369115136@NoSuchInstance)NoSuchInstance
.1.3.6.1.2.1.2.2į(.1.3.6.1.2.1.2.2.1.1.520110080@Integer32)520110080§(.1.3.6.1.2.1.2.2.1.2.520110080@OctetString)Bridge Port 1§(.1.3.6.1.2.1.2.2.1.3.520110080@Integer32)200§(.1.3.6.1.2.1.2.2.1.4.520110080@Integer32)0§(.1.3.6.1.2.1.2.2.1.5.520110080@Gauge32)0§(.1.3.6.1.2.1.2.2.1.6.520110080@OctetString)00-00-00-00-00-00§(.1.3.6.1.2.1.2.2.1.7.520110080@Integer32)1§(.1.3.6.1.2.1.2.2.1.8.520110080@Integer32)1§(.1.3.6.1.2.1.2.2.1.9.520110080@NoSuchInstance)NoSuchInstance§(.1.3.6.1.2.1.2.2.1.10.520110080@Counter32)0§(.1.3.6.1.2.1.2.2.1.11.520110080@Counter32)3902939§(.1.3.6.1.2.1.2.2.1.12.520110080@NoSuchInstance)NoSuchInstance§(.1.3.6.1.2.1.2.2.1.13.520110080@Counter32)0§(.1.3.6.1.2.1.2.2.1.14.520110080@Counter32)0§(.1.3.6.1.2.1.2.2.1.15.520110080@NoSuchInstance)NoSuchInstance§(.1.3.6.1.2.1.2.2.1.16.520110080@Counter32)0§(.1.3.6.1.2.1.2.2.1.17.520110080@Counter32)120364744§(.1.3.6.1.2.1.2.2.1.18.520110080@NoSuchInstance)NoSuchInstance§(.1.3.6.1.2.1.2.2.1.19.520110080@Counter32)0§(.1.3.6.1.2.1.2.2.1.20.520110080@Counter32)0§(.1.3.6.1.2.1.2.2.1.21.520110080@NoSuchInstance)NoSuchInstance§(.1.3.6.1.2.1.2.2.1.22.520110080@NoSuchInstance)NoSuchInstance
.1.3.6.1.2.1.2.2į(.1.3.6.1.2.1.2.2.1.1.520126464@Integer32)520126464§(.1.3.6.1.2.1.2.2.1.2.520126464@OctetString)Bridge Port 2§(.1.3.6.1.2.1.2.2.1.3.520126464@Integer32)200§(.1.3.6.1.2.1.2.2.1.4.520126464@Integer32)0§(.1.3.6.1.2.1.2.2.1.5.520126464@Gauge32)100000000§(.1.3.6.1.2.1.2.2.1.6.520126464@OctetString)00-00-00-00-00-00§(.1.3.6.1.2.1.2.2.1.7.520126464@Integer32)1§(.1.3.6.1.2.1.2.2.1.8.520126464@Integer32)1§(.1.3.6.1.2.1.2.2.1.9.520126464@NoSuchInstance)NoSuchInstance§(.1.3.6.1.2.1.2.2.1.10.520126464@Counter32)0§(.1.3.6.1.2.1.2.2.1.11.520126464@Counter32)3902939§(.1.3.6.1.2.1.2.2.1.12.520126464@NoSuchInstance)NoSuchInstance§(.1.3.6.1.2.1.2.2.1.13.520126464@Counter32)0§(.1.3.6.1.2.1.2.2.1.14.520126464@Counter32)0§(.1.3.6.1.2.1.2.2.1.15.520126464@NoSuchInstance)NoSuchInstance§(.1.3.6.1.2.1.2.2.1.16.520126464@Counter32)0§(.1.3.6.1.2.1.2.2.1.17.520126464@Counter32)120364744§(.1.3.6.1.2.1.2.2.1.18.520126464@NoSuchInstance)NoSuchInstance§(.1.3.6.1.2.1.2.2.1.19.520126464@Counter32)0§(.1.3.6.1.2.1.2.2.1.20.520126464@Counter32)0§(.1.3.6.1.2.1.2.2.1.21.520126464@NoSuchInstance)NoSuchInstance§(.1.3.6.1.2.1.2.2.1.22.520126464@NoSuchInstance)NoSuchInstance
.1.3.6.1.2.1.2.2į(.1.3.6.1.2.1.2.2.1.1.520142848@Integer32)520142848§(.1.3.6.1.2.1.2.2.1.2.520142848@OctetString)Bridge Port 3§(.1.3.6.1.2.1.2.2.1.3.520142848@Integer32)200§(.1.3.6.1.2.1.2.2.1.4.520142848@Integer32)0§(.1.3.6.1.2.1.2.2.1.5.520142848@Gauge32)0§(.1.3.6.1.2.1.2.2.1.6.520142848@OctetString)00-00-00-00-00-00§(.1.3.6.1.2.1.2.2.1.7.520142848@Integer32)1§(.1.3.6.1.2.1.2.2.1.8.520142848@Integer32)2§(.1.3.6.1.2.1.2.2.1.9.520142848@NoSuchInstance)NoSuchInstance§(.1.3.6.1.2.1.2.2.1.10.520142848@Counter32)0§(.1.3.6.1.2.1.2.2.1.11.520142848@Counter32)3902939§(.1.3.6.1.2.1.2.2.1.12.520142848@NoSuchInstance)NoSuchInstance§(.1.3.6.1.2.1.2.2.1.13.520142848@Counter32)0§(.1.3.6.1.2.1.2.2.1.14.520142848@Counter32)0§(.1.3.6.1.2.1.2.2.1.15.520142848@NoSuchInstance)NoSuchInstance§(.1.3.6.1.2.1.2.2.1.16.520142848@Counter32)0§(.1.3.6.1.2.1.2.2.1.17.520142848@Counter32)120364744§(.1.3.6.1.2.1.2.2.1.18.520142848@NoSuchInstance)NoSuchInstance§(.1.3.6.1.2.1.2.2.1.19.520142848@Counter32)0§(.1.3.6.1.2.1.2.2.1.20.520142848@Counter32)0§(.1.3.6.1.2.1.2.2.1.21.520142848@NoSuchInstance)NoSuchInstance§(.1.3.6.1.2.1.2.2.1.22.520142848@NoSuchInstance)NoSuchInstance
.1.3.6.1.2.1.2.2į(.1.3.6.1.2.1.2.2.1.1.520159232@Integer32)520159232§(.1.3.6.1.2.1.2.2.1.2.520159232@OctetString)Bridge Port 4§(.1.3.6.1.2.1.2.2.1.3.520159232@Integer32)200§(.1.3.6.1.2.1.2.2.1.4.520159232@Integer32)0§(.1.3.6.1.2.1.2.2.1.5.520159232@Gauge32)0§(.1.3.6.1.2.1.2.2.1.6.520159232@OctetString)00-00-00-00-00-00§(.1.3.6.1.2.1.2.2.1.7.520159232@Integer32)1§(.1.3.6.1.2.1.2.2.1.8.520159232@Integer32)2§(.1.3.6.1.2.1.2.2.1.9.520159232@NoSuchInstance)NoSuchInstance§(.1.3.6.1.2.1.2.2.1.10.520159232@Counter32)0§(.1.3.6.1.2.1.2.2.1.11.520159232@Counter32)3902939§(.1.3.6.1.2.1.2.2.1.12.520159232@NoSuchInstance)NoSuchInstance§(.1.3.6.1.2.1.2.2.1.13.520159232@Counter32)0§(.1.3.6.1.2.1.2.2.1.14.520159232@Counter32)0§(.1.3.6.1.2.1.2.2.1.15.520159232@NoSuchInstance)NoSuchInstance§(.1.3.6.1.2.1.2.2.1.16.520159232@Counter32)0§(.1.3.6.1.2.1.2.2.1.17.520159232@Counter32)120364744§(.1.3.6.1.2.1.2.2.1.18.520159232@NoSuchInstance)NoSuchInstance§(.1.3.6.1.2.1.2.2.1.19.520159232@Counter32)0§(.1.3.6.1.2.1.2.2.1.20.520159232@Counter32)0§(.1.3.6.1.2.1.2.2.1.21.520159232@NoSuchInstance)NoSuchInstance§(.1.3.6.1.2.1.2.2.1.22.520159232@NoSuchInstance)NoSuchInstance
.1.3.6.1.2.1.2.2į(.1.3.6.1.2.1.2.2.1.1.520175616@Integer32)520175616§(.1.3.6.1.2.1.2.2.1.2.520175616@OctetString)Bridge Port 5§(.1.3.6.1.2.1.2.2.1.3.520175616@Integer32)200§(.1.3.6.1.2.1.2.2.1.4.520175616@Integer32)0§(.1.3.6.1.2.1.2.2.1.5.520175616@Gauge32)0§(.1.3.6.1.2.1.2.2.1.6.520175616@OctetString)00-00-00-00-00-00§(.1.3.6.1.2.1.2.2.1.7.520175616@Integer32)1§(.1.3.6.1.2.1.2.2.1.8.520175616@Integer32)2§(.1.3.6.1.2.1.2.2.1.9.520175616@NoSuchInstance)NoSuchInstance§(.1.3.6.1.2.1.2.2.1.10.520175616@Counter32)528386233§(.1.3.6.1.2.1.2.2.1.11.520175616@Counter32)3902939§(.1.3.6.1.2.1.2.2.1.12.520175616@NoSuchInstance)NoSuchInstance§(.1.3.6.1.2.1.2.2.1.13.520175616@Counter32)0§(.1.3.6.1.2.1.2.2.1.14.520175616@Counter32)0§(.1.3.6.1.2.1.2.2.1.15.520175616@NoSuchInstance)NoSuchInstance§(.1.3.6.1.2.1.2.2.1.16.520175616@Counter32)3412324808§(.1.3.6.1.2.1.2.2.1.17.520175616@Counter32)120364744§(.1.3.6.1.2.1.2.2.1.18.520175616@NoSuchInstance)NoSuchInstance§(.1.3.6.1.2.1.2.2.1.19.520175616@Counter32)0§(.1.3.6.1.2.1.2.2.1.20.520175616@Counter32)0§(.1.3.6.1.2.1.2.2.1.21.520175616@NoSuchInstance)NoSuchInstance§(.1.3.6.1.2.1.2.2.1.22.520175616@NoSuchInstance)NoSuchInstance
.1.3.6.1.2.1.2.2į(.1.3.6.1.2.1.2.2.1.1.520192000@Integer32)520192000§(.1.3.6.1.2.1.2.2.1.2.520192000@OctetString)Bridge Port 6§(.1.3.6.1.2.1.2.2.1.3.520192000@Integer32)200§(.1.3.6.1.2.1.2.2.1.4.520192000@Integer32)0§(.1.3.6.1.2.1.2.2.1.5.520192000@Gauge32)5696000§(.1.3.6.1.2.1.2.2.1.6.520192000@OctetString)00-00-00-00-00-00§(.1.3.6.1.2.1.2.2.1.7.520192000@Integer32)1§(.1.3.6.1.2.1.2.2.1.8.520192000@Integer32)1§(.1.3.6.1.2.1.2.2.1.9.520192000@NoSuchInstance)NoSuchInstance§(.1.3.6.1.2.1.2.2.1.10.520192000@Counter32)404260309§(.1.3.6.1.2.1.2.2.1.11.520192000@Counter32)3902939§(.1.3.6.1.2.1.2.2.1.12.520192000@NoSuchInstance)NoSuchInstance§(.1.3.6.1.2.1.2.2.1.13.520192000@Counter32)1480098901§(.1.3.6.1.2.1.2.2.1.14.520192000@Counter32)0§(.1.3.6.1.2.1.2.2.1.15.520192000@NoSuchInstance)NoSuchInstance§(.1.3.6.1.2.1.2.2.1.16.520192000@Counter32)1484358740§(.1.3.6.1.2.1.2.2.1.17.520192000@Counter32)120364744§(.1.3.6.1.2.1.2.2.1.18.520192000@NoSuchInstance)NoSuchInstance§(.1.3.6.1.2.1.2.2.1.19.520192000@Counter32)0§(.1.3.6.1.2.1.2.2.1.20.520192000@Counter32)0§(.1.3.6.1.2.1.2.2.1.21.520192000@NoSuchInstance)NoSuchInstance§(.1.3.6.1.2.1.2.2.1.22.520192000@NoSuchInstance)NoSuchInstance
